EDA Project
…
#determining which continent has the highest average ramen rating
ramen_happy %>% group_by(Continent) %>% 
  summarize(mean_rating=mean(stars, na.rm = T)) %>% 
  slice(which.max(mean_rating))

## # A tibble: 1 x 2
##   Continent     mean_rating
##   <chr>               <dbl>
## 1 South America        3.79

#determining the total number of varieties per brand 
ramen_happy %>% select(brand, variety) %>% group_by(brand) %>% summarize(n=n()) %>%  arrange(desc(n))

## # A tibble: 453 x 2
##    brand               n
##    <chr>           <int>
##  1 Nissin            443
##  2 Nongshim          110
##  3 Maruchan          106
##  4 Myojo              90
##  5 Samyang Foods      81
##  6 Mama               71
##  7 Paldo              71
##  8 Indomie            56
##  9 Ottogi             47
## 10 Sapporo Ichiban    44
## # … with 443 more rows
…
#determining which country has the highest happiness score 
happy_country <- ramen_happy%>% select(country, stars, Happiness.Score) %>% arrange(desc(Happiness.Score))
  
happy_country %>% group_by(country) %>% summarize(mean_happy=mean(Happiness.Score, na.rm = T)) %>% arrange(desc(mean_happy))

## # A tibble: 39 x 2
##    country              mean_happy
##    <chr>                     <dbl>
##  1 Finland                    7.47
##  2 Netherlands                7.38
##  3 Canada                     7.32
##  4 New Zealand                7.31
##  5 Australia                  7.28
##  6 Sweden                     7.28
##  7 United States              6.99
##  8 Germany                    6.95
##  9 UK                         6.71
## 10 United Arab Emirates       6.65
## # … with 29 more rows
…
## # A tibble: 6 x 2
##   Continent     mean_happy
##   <chr>              <dbl>
## 1 Australia           7.29
## 2 North America       7.00
## 3 Europe              6.66
## 4 South America       6.54
## 5 Asia                5.84
## 6 Africa              4.60

#determining the most common brand in Asia
ramen_happy%>% filter(Continent=="Asia") %>% group_by(brand) %>% count() %>% arrange(desc(n))

## # A tibble: 345 x 2
## # Groups:   brand [345]
##    brand             n
##    <chr>         <int>
##  1 Nissin          281
##  2 Myojo            82
##  3 Samyang Foods    81
##  4 Mama             71
##  5 Paldo            71
##  6 Nongshim         70
##  7 Indomie          54
##  8 Maruchan         48
##  9 Ottogi           43
## 10 Acecook          37
## # … with 335 more rows

#determining highest rated brand in Japan
ramen_happy%>% filter(country=="Japan") %>% 
  group_by(brand) %>% 
  summarize(mean_rating=mean(stars, na.rm = T)) %>% 
  arrange(desc(mean_rating))

## # A tibble: 73 x 2
##    brand        mean_rating
##    <chr>              <dbl>
##  1 Fukumen             5   
##  2 Higashi             5   
##  3 Kimura              5   
##  4 MyKuali             5   
##  5 Seven & I           5   
##  6 Takamori            5   
##  7 Torishi             5   
##  8 Island Foods        4.8 
##  9 Ogasawara           4.75
## 10 Yamamori            4.62
## # … with 63 more rows

#counting number of varieties within different brands in Japan
ramen_happy%>% filter(country=="Japan") %>% 
  group_by(brand) %>% count()

## # A tibble: 73 x 2
## # Groups:   brand [73]
##    brand           n
##    <chr>       <int>
##  1 Acecook        36
##  2 Ajinatori       2
##  3 Daikoku        13
##  4 Daraz           1
##  5 Fuji Mengyo     1
##  6 Fujiwara        7
##  7 Fukumen         1
##  8 Goku Uma        3
##  9 Higashi         1
## 10 Higashimaru     1
## # … with 63 more rows
…
